<?xml version="1.0" encoding="utf-8"?>
<!-- Generator: Adobe Illustrator 18.0.0, SVG Export Plug-In . SVG Version: 6.00 Build 0)  -->
<!DOCTYPE svg PUBLIC "-//W3C//DTD SVG 1.1//EN" "http://www.w3.org/Graphics/SVG/1.1/DTD/svg11.dtd">
<svg version="1.1" id="Layer_1" xmlns="http://www.w3.org/2000/svg" xmlns:xlink="http://www.w3.org/1999/xlink" x="0px" y="0px"
	 viewBox="0 0 100 100" enable-background="new 0 0 100 100" xml:space="preserve">
<g>
	<path fill="#FFFFFF" d="M50,6.7c23.9,0,43.3,19.4,43.3,43.3S73.9,93.3,50,93.3S6.7,73.9,6.7,50S26.1,6.7,50,6.7 M50,0
		C22.4,0,0,22.4,0,50s22.4,50,50,50s50-22.4,50-50S77.6,0,50,0L50,0z"/>
	<path fill="#FFFFFF" d="M77.2,35.5c-2,0.9-4.1,1.5-6.3,1.7c2.3-1.3,4-3.5,4.8-6c-2.1,1.2-4.4,2.2-6.9,2.6c-2-2.1-4.8-3.4-8-3.4
		c-6,0-10.9,4.9-10.9,10.9c0,0.9,0.1,1.7,0.3,2.5c-9.1-0.5-17.1-4.8-22.5-11.4c-0.9,1.6-1.5,3.5-1.5,5.5c0,3.8,1.9,7.1,4.9,9.1
		c-1.8-0.1-3.5-0.5-4.9-1.4c0,0,0,0.1,0,0.1c0,5.3,3.8,9.7,8.7,10.7c-0.9,0.2-1.9,0.4-2.9,0.4c-0.7,0-1.4-0.1-2.1-0.2
		c1.4,4.3,5.4,7.5,10.2,7.6c-3.7,2.9-8.4,4.7-13.5,4.7c-0.9,0-1.7-0.1-2.6-0.2c4.8,3.1,10.6,4.9,16.7,4.9c20.1,0,31-16.6,31-31
		c0-0.5,0-0.9,0-1.4C73.9,39.6,75.8,37.7,77.2,35.5z"/>
</g>
</svg>
